{
	"info": {
		"_postman_id": "04e61913-b16c-4efd-a5a7-727d6a7464de",
		"name": "Dimofinf Task",
		"schema": "https://schema.getpostman.com/json/collection/v2.1.0/collection.json",
		"_exporter_id": "24977570"
	},
	"item": [
		{
			"name": "Login",
			"request": {
				"auth": {
					"type": "bearer",
					"bearer": [
						{
							"key": "token",
							"value": "eyJ0eXAiOiJKV1QiLCJhbGciOiJIUzI1NiJ9.eyJpc3MiOiJodHRwOlwvXC9sb2NhbGhvc3Q6ODAwMFwvYXBpXC9sb2dpbiIsImlhdCI6MTY3OTE0OTQzNywiZXhwIjoxNjc5MTUzMDM3LCJuYmYiOjE2NzkxNDk0MzcsImp0aSI6InM2V0lsWG9rbW1ISWxZNEMiLCJzdWIiOjEsInBydiI6Ijg3ZTBhZjFlZjlmZDE1ODEyZmRlYzk3MTUzYTE0ZTBiMDQ3NTQ2YWEifQ.CDnwX5uGFrzYg5E4ID4smdCJbctJy_iNNJbjWhqSBmQ",
							"type": "string"
						}
					]
				},
				"method": "POST",
				"header": [],
				"body": {
					"mode": "formdata",
					"formdata": [
						{
							"key": "email",
							"value": "mgebril360@gmail.com",
							"type": "text"
						},
						{
							"key": "password",
							"value": "password",
							"type": "text"
						}
					]
				},
				"url": {
					"raw": "localhost:8000/api/login",
					"host": [
						"localhost"
					],
					"port": "8000",
					"path": [
						"api",
						"login"
					]
				}
			},
			"response": []
		},
		{
			"name": "Posts",
			"request": {
				"auth": {
					"type": "bearer",
					"bearer": [
						{
							"key": "token",
							"value": "eyJ0eXAiOiJKV1QiLCJhbGciOiJIUzI1NiJ9.eyJpc3MiOiJodHRwOlwvXC9sb2NhbGhvc3Q6ODAwMFwvYXBpXC9sb2dpbiIsImlhdCI6MTY3OTE0OTQzNywiZXhwIjoxNjc5MTUzMDM3LCJuYmYiOjE2NzkxNDk0MzcsImp0aSI6InM2V0lsWG9rbW1ISWxZNEMiLCJzdWIiOjEsInBydiI6Ijg3ZTBhZjFlZjlmZDE1ODEyZmRlYzk3MTUzYTE0ZTBiMDQ3NTQ2YWEifQ.CDnwX5uGFrzYg5E4ID4smdCJbctJy_iNNJbjWhqSBmQ",
							"type": "string"
						}
					]
				},
				"method": "GET",
				"header": [],
				"url": {
					"raw": "localhost:8000/api/posts?user_id=1",
					"host": [
						"localhost"
					],
					"port": "8000",
					"path": [
						"api",
						"posts"
					],
					"query": [
						{
							"key": "user_id",
							"value": "1"
						}
					]
				}
			},
			"response": []
		},
		{
			"name": "Show Post",
			"request": {
				"auth": {
					"type": "bearer",
					"bearer": [
						{
							"key": "token",
							"value": "eyJ0eXAiOiJKV1QiLCJhbGciOiJIUzI1NiJ9.eyJpc3MiOiJodHRwOlwvXC9sb2NhbGhvc3Q6ODAwMFwvYXBpXC9sb2dpbiIsImlhdCI6MTY3OTE0OTQzNywiZXhwIjoxNjc5MTUzMDM3LCJuYmYiOjE2NzkxNDk0MzcsImp0aSI6InM2V0lsWG9rbW1ISWxZNEMiLCJzdWIiOjEsInBydiI6Ijg3ZTBhZjFlZjlmZDE1ODEyZmRlYzk3MTUzYTE0ZTBiMDQ3NTQ2YWEifQ.CDnwX5uGFrzYg5E4ID4smdCJbctJy_iNNJbjWhqSBmQ",
							"type": "string"
						}
					]
				},
				"method": "GET",
				"header": [],
				"url": {
					"raw": "localhost:8000/api/posts/34",
					"host": [
						"localhost"
					],
					"port": "8000",
					"path": [
						"api",
						"posts",
						"34"
					]
				}
			},
			"response": []
		},
		{
			"name": "Store Post",
			"request": {
				"auth": {
					"type": "bearer",
					"bearer": [
						{
							"key": "token",
							"value": "eyJ0eXAiOiJKV1QiLCJhbGciOiJIUzI1NiJ9.eyJpc3MiOiJodHRwOlwvXC9sb2NhbGhvc3Q6ODAwMFwvYXBpXC9sb2dpbiIsImlhdCI6MTY3OTE0OTQzNywiZXhwIjoxNjc5MTUzMDM3LCJuYmYiOjE2NzkxNDk0MzcsImp0aSI6InM2V0lsWG9rbW1ISWxZNEMiLCJzdWIiOjEsInBydiI6Ijg3ZTBhZjFlZjlmZDE1ODEyZmRlYzk3MTUzYTE0ZTBiMDQ3NTQ2YWEifQ.CDnwX5uGFrzYg5E4ID4smdCJbctJy_iNNJbjWhqSBmQ",
							"type": "string"
						}
					]
				},
				"method": "POST",
				"header": [],
				"body": {
					"mode": "formdata",
					"formdata": [
						{
							"key": "title",
							"value": "post title ",
							"type": "text"
						},
						{
							"key": "desc",
							"value": "description of post",
							"type": "text"
						},
						{
							"key": "contact_number",
							"value": "01091701810",
							"type": "text"
						},
						{
							"key": "image",
							"type": "file",
							"src": "/C:/Users/MAHMOUD/Downloads/logo.png"
						}
					]
				},
				"url": {
					"raw": "localhost:8000/api/posts",
					"host": [
						"localhost"
					],
					"port": "8000",
					"path": [
						"api",
						"posts"
					]
				}
			},
			"response": []
		}
	]
}